+--------+-----------+-------------------------------+-------------------------+------------------------------------------------------------------------+---------------------------------------------------------+
|[32m Domain [39m|[32m Method    [39m|[32m URI                           [39m|[32m Name                    [39m|[32m Action                                                                 [39m|[32m Middleware                                              [39m|
+--------+-----------+-------------------------------+-------------------------+------------------------------------------------------------------------+---------------------------------------------------------+
[39;49m|        | GET|HEAD  | /                             |                         | Closure                                                                | App\Http\Middleware\EncryptCookies[39;49m[39;49m                      |[39;49m
[39;49m|        |           |                               |                         |                                                                        | [39;49m[39;49mIlluminate\Cookie\Middleware\AddQueuedCookiesToResponse[39;49m[39;49m |[39;49m
[39;49m|        |           |                               |                         |                                                                        | [39;49m[39;49mIlluminate\Session\Middleware\StartSession[39;49m[39;49m              |[39;49m
[39;49m|        |           |                               |                         |                                                                        | [39;49m[39;49mIlluminate\View\Middleware\ShareErrorsFromSession[39;49m[39;49m       |[39;49m
[39;49m|        |           |                               |                         |                                                                        | [39;49m[39;49mApp\Http\Middleware\VerifyCsrfToken[39;49m[39;49m                     |[39;49m
[39;49m|        |           |                               |                         |                                                                        | [39;49mIlluminate\Routing\Middleware\SubstituteBindings        |
[39;49m|        | GET|HEAD  | _debugbar/assets/javascript   | debugbar.assets.js      | Barryvdh\Debugbar\Controllers\AssetController@js                       | Barryvdh\Debugbar\Middleware\DebugbarEnabled[39;49m[39;49m            |[39;49m
[39;49m|        |           |                               |                         |                                                                        | [39;49mClosure                                                 |
[39;49m|        | GET|HEAD  | _debugbar/assets/stylesheets  | debugbar.assets.css     | Barryvdh\Debugbar\Controllers\AssetController@css                      | Barryvdh\Debugbar\Middleware\DebugbarEnabled[39;49m[39;49m            |[39;49m
[39;49m|        |           |                               |                         |                                                                        | [39;49mClosure                                                 |
[39;49m|        | DELETE    | _debugbar/cache/{key}/{tags?} | debugbar.cache.delete   | Barryvdh\Debugbar\Controllers\CacheController@delete                   | Barryvdh\Debugbar\Middleware\DebugbarEnabled[39;49m[39;49m            |[39;49m
[39;49m|        |           |                               |                         |                                                                        | [39;49mClosure                                                 |
[39;49m|        | GET|HEAD  | _debugbar/clockwork/{id}      | debugbar.clockwork      | Barryvdh\Debugbar\Controllers\OpenHandlerController@clockwork          | Barryvdh\Debugbar\Middleware\DebugbarEnabled[39;49m[39;49m            |[39;49m
[39;49m|        |           |                               |                         |                                                                        | [39;49mClosure                                                 |
[39;49m|        | GET|HEAD  | _debugbar/open                | debugbar.openhandler    | Barryvdh\Debugbar\Controllers\OpenHandlerController@handle             | Barryvdh\Debugbar\Middleware\DebugbarEnabled[39;49m[39;49m            |[39;49m
[39;49m|        |           |                               |                         |                                                                        | [39;49mClosure                                                 |
[39;49m|        | GET|HEAD  | _debugbar/telescope/{id}      | debugbar.telescope      | Barryvdh\Debugbar\Controllers\TelescopeController@show                 | Barryvdh\Debugbar\Middleware\DebugbarEnabled[39;49m[39;49m            |[39;49m
[39;49m|        |           |                               |                         |                                                                        | [39;49mClosure                                                 |
[39;49m|        | GET|HEAD  | api/hello                     | hello                   | App\Http\Controllers\TestController@hello                              | Illuminate\Routing\Middleware\ThrottleRequests:api[39;49m[39;49m      |[39;49m
[39;49m|        |           |                               |                         |                                                                        | [39;49m[39;49mIlluminate\Routing\Middleware\SubstituteBindings[39;49m[39;49m        |[39;49m
[39;49m|        |           |                               |                         |                                                                        | [39;49mApp\Http\Middleware\JsonMiddleware                      |
[39;49m|        | POST      | api/login                     | api.users.login         | App\Http\Controllers\API\UserController@login                          | Illuminate\Routing\Middleware\ThrottleRequests:api[39;49m[39;49m      |[39;49m
[39;49m|        |           |                               |                         |                                                                        | [39;49m[39;49mIlluminate\Routing\Middleware\SubstituteBindings[39;49m[39;49m        |[39;49m
[39;49m|        |           |                               |                         |                                                                        | [39;49m[39;49mApp\Http\Middleware\JsonMiddleware[39;49m[39;49m                      |[39;49m
[39;49m|        |           |                               |                         |                                                                        | [39;49mApp\Http\Middleware\JsonMiddleware:api                  |
[39;49m|        | POST      | api/register                  | api.users.register      | App\Http\Controllers\API\UserController@register                       | Illuminate\Routing\Middleware\ThrottleRequests:api[39;49m[39;49m      |[39;49m
[39;49m|        |           |                               |                         |                                                                        | [39;49m[39;49mIlluminate\Routing\Middleware\SubstituteBindings[39;49m[39;49m        |[39;49m
[39;49m|        |           |                               |                         |                                                                        | [39;49m[39;49mApp\Http\Middleware\JsonMiddleware[39;49m[39;49m                      |[39;49m
[39;49m|        |           |                               |                         |                                                                        | [39;49mApp\Http\Middleware\JsonMiddleware:api                  |
[39;49m|        | GET|HEAD  | api/user                      |                         | Closure                                                                | App\Http\Middleware\Authenticate:api[39;49m[39;49m                    |[39;49m
[39;49m|        |           |                               |                         |                                                                        | [39;49m[39;49mIlluminate\Routing\Middleware\ThrottleRequests:api[39;49m[39;49m      |[39;49m
[39;49m|        |           |                               |                         |                                                                        | [39;49m[39;49mIlluminate\Routing\Middleware\SubstituteBindings[39;49m[39;49m        |[39;49m
[39;49m|        |           |                               |                         |                                                                        | [39;49mApp\Http\Middleware\JsonMiddleware                      |
[39;49m|        | DELETE    | api/users/model/{model}       | api.users.model.destroy | App\Http\Controllers\API\UserController@destroy                        | Illuminate\Routing\Middleware\ThrottleRequests:api[39;49m[39;49m      |[39;49m
[39;49m|        |           |                               |                         |                                                                        | [39;49m[39;49mIlluminate\Routing\Middleware\SubstituteBindings[39;49m[39;49m        |[39;49m
[39;49m|        |           |                               |                         |                                                                        | [39;49mApp\Http\Middleware\JsonMiddleware                      |
[39;49m|        | PUT|PATCH | api/users/model/{model}       | api.users.model.update  | App\Http\Controllers\API\UserController@update                         | Illuminate\Routing\Middleware\ThrottleRequests:api[39;49m[39;49m      |[39;49m
[39;49m|        |           |                               |                         |                                                                        | [39;49m[39;49mIlluminate\Routing\Middleware\SubstituteBindings[39;49m[39;49m        |[39;49m
[39;49m|        |           |                               |                         |                                                                        | [39;49mApp\Http\Middleware\JsonMiddleware                      |
[39;49m|        | GET|HEAD  | api/users/model/{model}       | api.users.model.show    | App\Http\Controllers\API\UserController@show                           | Illuminate\Routing\Middleware\ThrottleRequests:api[39;49m[39;49m      |[39;49m
[39;49m|        |           |                               |                         |                                                                        | [39;49m[39;49mIlluminate\Routing\Middleware\SubstituteBindings[39;49m[39;49m        |[39;49m
[39;49m|        |           |                               |                         |                                                                        | [39;49mApp\Http\Middleware\JsonMiddleware                      |
[39;49m|        | GET|HEAD  | api/users/model/{model}/edit  | api.users.model.edit    | App\Http\Controllers\API\UserController@edit                           | Illuminate\Routing\Middleware\ThrottleRequests:api[39;49m[39;49m      |[39;49m
[39;49m|        |           |                               |                         |                                                                        | [39;49m[39;49mIlluminate\Routing\Middleware\SubstituteBindings[39;49m[39;49m        |[39;49m
[39;49m|        |           |                               |                         |                                                                        | [39;49mApp\Http\Middleware\JsonMiddleware                      |
[39;49m|        | GET|HEAD  | home                          | home                    | App\Http\Controllers\HomeController@index                              | App\Http\Middleware\EncryptCookies[39;49m[39;49m                      |[39;49m
[39;49m|        |           |                               |                         |                                                                        | [39;49m[39;49mIlluminate\Cookie\Middleware\AddQueuedCookiesToResponse[39;49m[39;49m |[39;49m
[39;49m|        |           |                               |                         |                                                                        | [39;49m[39;49mIlluminate\Session\Middleware\StartSession[39;49m[39;49m              |[39;49m
[39;49m|        |           |                               |                         |                                                                        | [39;49m[39;49mIlluminate\View\Middleware\ShareErrorsFromSession[39;49m[39;49m       |[39;49m
[39;49m|        |           |                               |                         |                                                                        | [39;49m[39;49mApp\Http\Middleware\VerifyCsrfToken[39;49m[39;49m                     |[39;49m
[39;49m|        |           |                               |                         |                                                                        | [39;49m[39;49mApp\Http\Middleware\Authenticate[39;49m[39;49m                        |[39;49m
[39;49m|        |           |                               |                         |                                                                        | [39;49mIlluminate\Routing\Middleware\SubstituteBindings        |
[39;49m|        | GET|HEAD  | login                         | login                   | App\Http\Controllers\Auth\LoginController@showLoginForm                | App\Http\Middleware\EncryptCookies[39;49m[39;49m                      |[39;49m
[39;49m|        |           |                               |                         |                                                                        | [39;49m[39;49mIlluminate\Cookie\Middleware\AddQueuedCookiesToResponse[39;49m[39;49m |[39;49m
[39;49m|        |           |                               |                         |                                                                        | [39;49m[39;49mIlluminate\Session\Middleware\StartSession[39;49m[39;49m              |[39;49m
[39;49m|        |           |                               |                         |                                                                        | [39;49m[39;49mIlluminate\View\Middleware\ShareErrorsFromSession[39;49m[39;49m       |[39;49m
[39;49m|        |           |                               |                         |                                                                        | [39;49m[39;49mApp\Http\Middleware\VerifyCsrfToken[39;49m[39;49m                     |[39;49m
[39;49m|        |           |                               |                         |                                                                        | [39;49m[39;49mIlluminate\Routing\Middleware\SubstituteBindings[39;49m[39;49m        |[39;49m
[39;49m|        |           |                               |                         |                                                                        | [39;49mApp\Http\Middleware\RedirectIfAuthenticated             |
[39;49m|        | POST      | login                         |                         | App\Http\Controllers\Auth\LoginController@login                        | App\Http\Middleware\EncryptCookies[39;49m[39;49m                      |[39;49m
[39;49m|        |           |                               |                         |                                                                        | [39;49m[39;49mIlluminate\Cookie\Middleware\AddQueuedCookiesToResponse[39;49m[39;49m |[39;49m
[39;49m|        |           |                               |                         |                                                                        | [39;49m[39;49mIlluminate\Session\Middleware\StartSession[39;49m[39;49m              |[39;49m
[39;49m|        |           |                               |                         |                                                                        | [39;49m[39;49mIlluminate\View\Middleware\ShareErrorsFromSession[39;49m[39;49m       |[39;49m
[39;49m|        |           |                               |                         |                                                                        | [39;49m[39;49mApp\Http\Middleware\VerifyCsrfToken[39;49m[39;49m                     |[39;49m
[39;49m|        |           |                               |                         |                                                                        | [39;49m[39;49mIlluminate\Routing\Middleware\SubstituteBindings[39;49m[39;49m        |[39;49m
[39;49m|        |           |                               |                         |                                                                        | [39;49mApp\Http\Middleware\RedirectIfAuthenticated             |
[39;49m|        | POST      | logout                        | logout                  | App\Http\Controllers\Auth\LoginController@logout                       | App\Http\Middleware\EncryptCookies[39;49m[39;49m                      |[39;49m
[39;49m|        |           |                               |                         |                                                                        | [39;49m[39;49mIlluminate\Cookie\Middleware\AddQueuedCookiesToResponse[39;49m[39;49m |[39;49m
[39;49m|        |           |                               |                         |                                                                        | [39;49m[39;49mIlluminate\Session\Middleware\StartSession[39;49m[39;49m              |[39;49m
[39;49m|        |           |                               |                         |                                                                        | [39;49m[39;49mIlluminate\View\Middleware\ShareErrorsFromSession[39;49m[39;49m       |[39;49m
[39;49m|        |           |                               |                         |                                                                        | [39;49m[39;49mApp\Http\Middleware\VerifyCsrfToken[39;49m[39;49m                     |[39;49m
[39;49m|        |           |                               |                         |                                                                        | [39;49mIlluminate\Routing\Middleware\SubstituteBindings        |
[39;49m|        | GET|HEAD  | password/confirm              | password.confirm        | App\Http\Controllers\Auth\ConfirmPasswordController@showConfirmForm    | App\Http\Middleware\EncryptCookies[39;49m[39;49m                      |[39;49m
[39;49m|        |           |                               |                         |                                                                        | [39;49m[39;49mIlluminate\Cookie\Middleware\AddQueuedCookiesToResponse[39;49m[39;49m |[39;49m
[39;49m|        |           |                               |                         |                                                                        | [39;49m[39;49mIlluminate\Session\Middleware\StartSession[39;49m[39;49m              |[39;49m
[39;49m|        |           |                               |                         |                                                                        | [39;49m[39;49mIlluminate\View\Middleware\ShareErrorsFromSession[39;49m[39;49m       |[39;49m
[39;49m|        |           |                               |                         |                                                                        | [39;49m[39;49mApp\Http\Middleware\VerifyCsrfToken[39;49m[39;49m                     |[39;49m
[39;49m|        |           |                               |                         |                                                                        | [39;49m[39;49mApp\Http\Middleware\Authenticate[39;49m[39;49m                        |[39;49m
[39;49m|        |           |                               |                         |                                                                        | [39;49mIlluminate\Routing\Middleware\SubstituteBindings        |
[39;49m|        | POST      | password/confirm              |                         | App\Http\Controllers\Auth\ConfirmPasswordController@confirm            | App\Http\Middleware\EncryptCookies[39;49m[39;49m                      |[39;49m
[39;49m|        |           |                               |                         |                                                                        | [39;49m[39;49mIlluminate\Cookie\Middleware\AddQueuedCookiesToResponse[39;49m[39;49m |[39;49m
[39;49m|        |           |                               |                         |                                                                        | [39;49m[39;49mIlluminate\Session\Middleware\StartSession[39;49m[39;49m              |[39;49m
[39;49m|        |           |                               |                         |                                                                        | [39;49m[39;49mIlluminate\View\Middleware\ShareErrorsFromSession[39;49m[39;49m       |[39;49m
[39;49m|        |           |                               |                         |                                                                        | [39;49m[39;49mApp\Http\Middleware\VerifyCsrfToken[39;49m[39;49m                     |[39;49m
[39;49m|        |           |                               |                         |                                                                        | [39;49m[39;49mApp\Http\Middleware\Authenticate[39;49m[39;49m                        |[39;49m
[39;49m|        |           |                               |                         |                                                                        | [39;49mIlluminate\Routing\Middleware\SubstituteBindings        |
[39;49m|        | POST      | password/email                | password.email          | App\Http\Controllers\Auth\ForgotPasswordController@sendResetLinkEmail  | App\Http\Middleware\EncryptCookies[39;49m[39;49m                      |[39;49m
[39;49m|        |           |                               |                         |                                                                        | [39;49m[39;49mIlluminate\Cookie\Middleware\AddQueuedCookiesToResponse[39;49m[39;49m |[39;49m
[39;49m|        |           |                               |                         |                                                                        | [39;49m[39;49mIlluminate\Session\Middleware\StartSession[39;49m[39;49m              |[39;49m
[39;49m|        |           |                               |                         |                                                                        | [39;49m[39;49mIlluminate\View\Middleware\ShareErrorsFromSession[39;49m[39;49m       |[39;49m
[39;49m|        |           |                               |                         |                                                                        | [39;49m[39;49mApp\Http\Middleware\VerifyCsrfToken[39;49m[39;49m                     |[39;49m
[39;49m|        |           |                               |                         |                                                                        | [39;49mIlluminate\Routing\Middleware\SubstituteBindings        |
[39;49m|        | GET|HEAD  | password/reset                | password.request        | App\Http\Controllers\Auth\ForgotPasswordController@showLinkRequestForm | App\Http\Middleware\EncryptCookies[39;49m[39;49m                      |[39;49m
[39;49m|        |           |                               |                         |                                                                        | [39;49m[39;49mIlluminate\Cookie\Middleware\AddQueuedCookiesToResponse[39;49m[39;49m |[39;49m
[39;49m|        |           |                               |                         |                                                                        | [39;49m[39;49mIlluminate\Session\Middleware\StartSession[39;49m[39;49m              |[39;49m
[39;49m|        |           |                               |                         |                                                                        | [39;49m[39;49mIlluminate\View\Middleware\ShareErrorsFromSession[39;49m[39;49m       |[39;49m
[39;49m|        |           |                               |                         |                                                                        | [39;49m[39;49mApp\Http\Middleware\VerifyCsrfToken[39;49m[39;49m                     |[39;49m
[39;49m|        |           |                               |                         |                                                                        | [39;49mIlluminate\Routing\Middleware\SubstituteBindings        |
[39;49m|        | POST      | password/reset                | password.update         | App\Http\Controllers\Auth\ResetPasswordController@reset                | App\Http\Middleware\EncryptCookies[39;49m[39;49m                      |[39;49m
[39;49m|        |           |                               |                         |                                                                        | [39;49m[39;49mIlluminate\Cookie\Middleware\AddQueuedCookiesToResponse[39;49m[39;49m |[39;49m
[39;49m|        |           |                               |                         |                                                                        | [39;49m[39;49mIlluminate\Session\Middleware\StartSession[39;49m[39;49m              |[39;49m
[39;49m|        |           |                               |                         |                                                                        | [39;49m[39;49mIlluminate\View\Middleware\ShareErrorsFromSession[39;49m[39;49m       |[39;49m
[39;49m|        |           |                               |                         |                                                                        | [39;49m[39;49mApp\Http\Middleware\VerifyCsrfToken[39;49m[39;49m                     |[39;49m
[39;49m|        |           |                               |                         |                                                                        | [39;49mIlluminate\Routing\Middleware\SubstituteBindings        |
[39;49m|        | GET|HEAD  | password/reset/{token}        | password.reset          | App\Http\Controllers\Auth\ResetPasswordController@showResetForm        | App\Http\Middleware\EncryptCookies[39;49m[39;49m                      |[39;49m
[39;49m|        |           |                               |                         |                                                                        | [39;49m[39;49mIlluminate\Cookie\Middleware\AddQueuedCookiesToResponse[39;49m[39;49m |[39;49m
[39;49m|        |           |                               |                         |                                                                        | [39;49m[39;49mIlluminate\Session\Middleware\StartSession[39;49m[39;49m              |[39;49m
[39;49m|        |           |                               |                         |                                                                        | [39;49m[39;49mIlluminate\View\Middleware\ShareErrorsFromSession[39;49m[39;49m       |[39;49m
[39;49m|        |           |                               |                         |                                                                        | [39;49m[39;49mApp\Http\Middleware\VerifyCsrfToken[39;49m[39;49m                     |[39;49m
[39;49m|        |           |                               |                         |                                                                        | [39;49mIlluminate\Routing\Middleware\SubstituteBindings        |
[39;49m|        | GET|HEAD  | register                      | register                | App\Http\Controllers\Auth\RegisterController@showRegistrationForm      | App\Http\Middleware\EncryptCookies[39;49m[39;49m                      |[39;49m
[39;49m|        |           |                               |                         |                                                                        | [39;49m[39;49mIlluminate\Cookie\Middleware\AddQueuedCookiesToResponse[39;49m[39;49m |[39;49m
[39;49m|        |           |                               |                         |                                                                        | [39;49m[39;49mIlluminate\Session\Middleware\StartSession[39;49m[39;49m              |[39;49m
[39;49m|        |           |                               |                         |                                                                        | [39;49m[39;49mIlluminate\View\Middleware\ShareErrorsFromSession[39;49m[39;49m       |[39;49m
[39;49m|        |           |                               |                         |                                                                        | [39;49m[39;49mApp\Http\Middleware\VerifyCsrfToken[39;49m[39;49m                     |[39;49m
[39;49m|        |           |                               |                         |                                                                        | [39;49m[39;49mIlluminate\Routing\Middleware\SubstituteBindings[39;49m[39;49m        |[39;49m
[39;49m|        |           |                               |                         |                                                                        | [39;49mApp\Http\Middleware\RedirectIfAuthenticated             |
[39;49m|        | POST      | register                      |                         | App\Http\Controllers\Auth\RegisterController@register                  | App\Http\Middleware\EncryptCookies[39;49m[39;49m                      |[39;49m
[39;49m|        |           |                               |                         |                                                                        | [39;49m[39;49mIlluminate\Cookie\Middleware\AddQueuedCookiesToResponse[39;49m[39;49m |[39;49m
[39;49m|        |           |                               |                         |                                                                        | [39;49m[39;49mIlluminate\Session\Middleware\StartSession[39;49m[39;49m              |[39;49m
[39;49m|        |           |                               |                         |                                                                        | [39;49m[39;49mIlluminate\View\Middleware\ShareErrorsFromSession[39;49m[39;49m       |[39;49m
[39;49m|        |           |                               |                         |                                                                        | [39;49m[39;49mApp\Http\Middleware\VerifyCsrfToken[39;49m[39;49m                     |[39;49m
[39;49m|        |           |                               |                         |                                                                        | [39;49m[39;49mIlluminate\Routing\Middleware\SubstituteBindings[39;49m[39;49m        |[39;49m
[39;49m|        |           |                               |                         |                                                                        | [39;49mApp\Http\Middleware\RedirectIfAuthenticated             |
+--------+-----------+-------------------------------+-------------------------+------------------------------------------------------------------------+---------------------------------------------------------+
